{
  "type": "service_account",
  "project_id": "sign2go-dev",
  "private_key_id": "0d308f5bfed94a824b4b01404f4059feae864ca9",
  "private_key": "-----BEGIN PRIVATE KEY-----\nMIIEvQIBADANBgkqhkiG9w0BAQEFAASCBKcwggSjAgEAAoIBAQCW0+aOK07tpXvV\nWy8sZLU6FKNS9EbDmqQHgHi25ebOcpYVAgriH30xfOberD2S0ytoEg2I1WVkpQTD\n0rp26GHBFx28YboUlU4n8vuvJd+4tvNS9XSf7VlKLsZgu5AKDylm5MHa77iHV3s4\nWljLUSCMrWtIHxhEtWbl6JIzQuGmsDrX+SATOPT/RoHuO3FiPiPXwWWagBJWC1ME\nGCx5E13Q5yiR7R3kUwSC8NUtnt4S5vvskHE1B2p+wXlW0/xj9Y8lnlgkR9UJr/ZH\nW9nxZN+kMfRcIk80JV0poOAn8zLIVPUdxW/h24oKiojjK10zscIGh3Zx5WQvqU1y\nUqkgF6IXAgMBAAECggEASn6UhCmNzUCLviBQV1vSSsKAvGscPGY3l+DzPlqkudjM\nmcmteGvXGMc4/EgUDV2xNbCc8LV9Y81BYjrFkA9MoOL6891M2/e2Z3LSrnpFWmU6\nHwJOvOKs1D/wCTz6co10hHZ97NWzzVz+5iFxc9I5AmJw92ksQltaXDmXZCwnaX0k\n/XAyEW6rnG4iasDbx+5wZPTkiRhrYPvoF7tRJ+5UyDY6pTeEmsCgEh1mzIwq3Myk\nIR0JQQ7gJmJK9bGWANHOpUIlFd9DCwEjH/sbWNAgVKYMOWrr19kCrBfoNUuiiwaC\nORCMBFMuDNEeQ0n+ouW1+jK7OpHP/fDpo3SgFHIISQKBgQDMykoBk7ScOAn1yeQf\n74kT1qemjRTdbykg5Z1LIS6RHpSDdAA/n6rgNZXA3lGh0MOGgCaiuij4xkHXXDWt\nLB1KeGjGHCj4AUQi1lWCCL6i6uO1f4KYMh7PSuLX1QQ2xsoqRL1gDBe8yfybHPCq\nP7bggr+7fbo1s73T/SXb5tfL2wKBgQC8iy/3H4WitX29qvJbqvwMocwYAr4EFeg0\nsz/NaUP59FBULr75kTZR2dwcs4/VCG6RswumPT4VbktwmLYFvf7R61u4Q0KEV2u4\n2+0cme/uJtTm3WPPwaIfxVWsagdKF6GLRbVJpj1DHffHklRnOiTmwEjqzLYaZ9MG\nFMnRmsOVdQKBgDlgrB+I/N+QK+o7qLjx6hwu1kYp3SC1lnZrHwj/wQZT5RR3meI5\noCy1lsG1CHYoAcBbg3ewZO5eze/DHB7q70IAPorTNP9Xi3mfR9HpFVCcMzSVB0gR\nMuStfKUwP8ABLn9tRwn0GWqBxU7Iav2oYFrDB2lGrreBJryQftz/7pJlAoGAcSkA\nwstSg5N2Qm3lRAtdd59sRUTwErerRGYI9xokyFJQHBZqXJNBDOM67qb+vpdu9VeG\nuGGtb2NhN9UP+mZMGGWwCOmldJSbfLnSmAX0MPVxdpaNn1XSHktr3i1M7rU8KcDO\ny8NQpYXI/yjeK46EM1JY8UOoUDTcPJwhfQHsPTkCgYEAixSoC/kLqMfPw1Nowro7\nCHPfaj+aEYbn8FjtdmgnW263f33Cg/eF9fw3RZBq2C0LDaZv/I2Hiz9BiNEL7a1T\nXV7mwRMyz6/OZ4wjL4IDIzV8SK6MaVZyEGQ36l4Cl8IPLWAX/hZsZPl2p99q/UwA\nHSFjYniVK9ebEatLWY2bhk0=\n-----END PRIVATE KEY-----\n",
  "client_email": "dev-bucket-sp@sign2go-dev.iam.gserviceaccount.com",
  "client_id": "103834411848888711385",
  "auth_uri": "https://accounts.google.com/o/oauth2/auth",
  "token_uri": "https://oauth2.googleapis.com/token",
  "auth_provider_x509_cert_url": "https://www.googleapis.com/oauth2/v1/certs",
  "client_x509_cert_url": "https://www.googleapis.com/robot/v1/metadata/x509/dev-bucket-sp%40sign2go-dev.iam.gserviceaccount.com"
}
